# This file uses centimeters as units for non-parametric coordinates.

v -94.794999 -12.936718 39.363340
v -86.700762 -12.936718 37.000038
v -94.794999 -10.048189 39.363340
v -86.700762 -10.048189 37.000038
v -99.012241 -10.048189 24.919417
v -90.918003 -10.048189 22.556114
v -99.012241 -12.936718 24.919417
v -90.918003 -12.936718 22.556114
v -93.418711 -8.638347 38.961500
v -88.077051 -8.638347 37.401877
v -92.294292 -8.638347 22.957954
v -97.635953 -8.638347 24.517577
v -90.747881 -7.722787 38.181689
v -94.965123 -7.722787 23.737766
v -92.887822 -12.935562 38.806495
v -88.607938 -12.935562 37.556882
v -88.607938 -10.048189 37.556882
v -92.887822 -10.048189 38.806495
v -97.105064 -10.048189 24.362572
v -92.825179 -10.048189 23.112959
v -92.825179 -12.935562 23.112959
v -97.105064 -12.935562 24.362572
v -92.971535 -12.935562 38.519782
v -88.691650 -12.935562 37.270169
v -88.691650 -10.048189 37.270169
v -92.971535 -10.048189 38.519782
v -97.021351 -10.048189 24.649286
v -92.741466 -10.048189 23.399673
v -92.741466 -12.935562 23.399673
v -97.021351 -12.935562 24.649286
v -94.671228 -12.929678 39.016047
v -86.991957 -12.929678 36.773904
v -86.991957 -10.048189 36.773904
v -94.671228 -10.048189 39.016047
v -98.721044 -10.048189 25.145551
v -91.041773 -10.048189 22.903408
v -91.041773 -12.929678 22.903408
v -98.721044 -12.929678 25.145551
v -86.344828 -10.232798 37.549252
v -90.913507 -10.232798 21.901666
v -92.385254 -8.605987 22.331377
v -87.816575 -8.605987 37.978963
v -94.799495 -10.232798 40.017789
v -99.368174 -10.232798 24.370203
v -93.327747 -8.605987 39.588078
v -97.896426 -8.605987 23.940492
v -95.140841 -7.602901 23.135935
v -90.572162 -7.602901 38.783521
v -86.239838 -10.129719 37.518597
v -90.808517 -10.129719 21.871011
v -92.308964 -8.483508 22.309102
v -87.740285 -8.483508 37.956688
v -94.904484 -10.129719 40.048444
v -99.473163 -10.129719 24.400858
v -93.404037 -8.483508 39.610353
v -97.972716 -8.483508 23.962767
v -95.140841 -7.461022 23.135935
v -90.572162 -7.461022 38.783521
v -94.156423 -9.970981 39.305593
v -87.270087 -9.970981 37.294966
v -94.156423 -9.736365 39.305593
v -87.270087 -9.736365 37.294966
v -94.198209 -9.736365 39.162478
v -87.311873 -9.736365 37.151851
v -94.198209 -9.970981 39.162478
v -87.311873 -9.970981 37.151851
v -94.075288 -12.922221 39.227069
v -91.867472 -12.922221 38.582445
v -94.075288 -9.939532 39.227069
v -91.867472 -9.939532 38.582445
v -94.093301 -9.939532 39.165373
v -91.885485 -9.939532 38.520750
v -94.093301 -12.922221 39.165373
v -91.885485 -12.922221 38.520750
v -89.588583 -12.922221 37.917071
v -87.380764 -12.922221 37.272447
v -89.588583 -9.939532 37.917071
v -87.380764 -9.939532 37.272447
v -89.606596 -9.939532 37.855376
v -87.398777 -9.939532 37.210751
v -89.606596 -12.922221 37.855376
v -87.398777 -12.922221 37.210751
v -94.794999 -12.936718 39.363340
v -86.700762 -12.936718 37.000038
v -94.794999 -10.048189 39.363340
v -86.700762 -10.048189 37.000038
v -99.012241 -10.048189 24.919417
v -90.918003 -10.048189 22.556114
v -99.012241 -12.936718 24.919417
v -90.918003 -12.936718 22.556114
v -93.418711 -8.638347 38.961500
v -88.077051 -8.638347 37.401877
v -92.294292 -8.638347 22.957954
v -97.635953 -8.638347 24.517577
v -90.747881 -7.722787 38.181689
v -94.965123 -7.722787 23.737766
v -92.887822 -12.935562 38.806495
v -88.607938 -12.935562 37.556882
v -88.607938 -10.048189 37.556882
v -92.887822 -10.048189 38.806495
v -97.105064 -10.048189 24.362572
v -92.825179 -10.048189 23.112959
v -92.825179 -12.935562 23.112959
v -97.105064 -12.935562 24.362572
v -92.971535 -12.935562 38.519782
v -88.691650 -12.935562 37.270169
v -88.691650 -10.048189 37.270169
v -92.971535 -10.048189 38.519782
v -97.021351 -10.048189 24.649286
v -92.741466 -10.048189 23.399673
v -92.741466 -12.935562 23.399673
v -97.021351 -12.935562 24.649286
v -94.671228 -12.929678 39.016047
v -86.991957 -12.929678 36.773904
v -86.991957 -10.048189 36.773904
v -94.671228 -10.048189 39.016047
v -98.721044 -10.048189 25.145551
v -91.041773 -10.048189 22.903408
v -91.041773 -12.929678 22.903408
v -98.721044 -12.929678 25.145551
v -86.344828 -10.232798 37.549252
v -90.913507 -10.232798 21.901666
v -92.385254 -8.605987 22.331377
v -87.816575 -8.605987 37.978963
v -94.799495 -10.232798 40.017789
v -99.368174 -10.232798 24.370203
v -93.327747 -8.605987 39.588078
v -97.896426 -8.605987 23.940492
v -95.140841 -7.602901 23.135935
v -90.572162 -7.602901 38.783521
v -86.239838 -10.129719 37.518597
v -90.808517 -10.129719 21.871011
v -92.308964 -8.483508 22.309102
v -87.740285 -8.483508 37.956688
v -94.904484 -10.129719 40.048444
v -99.473163 -10.129719 24.400858
v -93.404037 -8.483508 39.610353
v -97.972716 -8.483508 23.962767
v -95.140841 -7.461022 23.135935
v -90.572162 -7.461022 38.783521
v -94.156423 -9.970981 39.305593
v -87.270087 -9.970981 37.294966
v -94.156423 -9.736365 39.305593
v -87.270087 -9.736365 37.294966
v -94.198209 -9.736365 39.162478
v -87.311873 -9.736365 37.151851
v -94.198209 -9.970981 39.162478
v -87.311873 -9.970981 37.151851
v -94.075288 -12.922221 39.227069
v -91.867472 -12.922221 38.582445
v -94.075288 -9.939532 39.227069
v -91.867472 -9.939532 38.582445
v -94.093301 -9.939532 39.165373
v -91.885485 -9.939532 38.520750
v -94.093301 -12.922221 39.165373
v -91.885485 -12.922221 38.520750
v -89.588583 -12.922221 37.917071
v -87.380764 -12.922221 37.272447
v -89.588583 -9.939532 37.917071
v -87.380764 -9.939532 37.272447
v -89.606596 -9.939532 37.855376
v -87.398777 -9.939532 37.210751
v -89.606596 -12.922221 37.855376
v -87.398777 -12.922221 37.210751
vt 0.264046 0.888461
vt 0.264046 0.721202
vt 0.686731 0.888461
vt 0.686731 0.721202
vt 0.264046 0.888339
vt 0.264046 0.721080
vt 0.686731 0.888339
vt 0.686731 0.721080
vt 0.328437 0.623423
vt 0.255971 0.552355
vt 0.609326 0.623048
vt 0.681602 0.551787
vt 0.583263 0.010827
vt 0.643781 0.010827
vt 0.583263 0.510539
vt 0.643781 0.510539
vt 0.609327 0.623861
vt 0.681604 0.552600
vt 0.328438 0.624236
vt 0.255972 0.553168
vt 0.354825 0.510539
vt 0.294307 0.510539
vt 0.354825 0.010827
vt 0.294307 0.010827
vt 0.468943 0.669450
vt 0.469044 0.010827
vt 0.469044 0.510539
vt 0.468944 0.670263
vt 0.706164 0.018316
vt 0.927479 0.018187
vt 0.706164 0.339947
vt 0.927479 0.339947
vt 0.927680 0.339947
vt 0.706364 0.339947
vt 0.927680 0.018316
vt 0.706364 0.018187
vt 0.706257 0.017671
vt 0.927572 0.017671
vt 0.706257 0.339302
vt 0.927572 0.339431
vt 0.927004 0.340452
vt 0.705689 0.340581
vt 0.927004 0.018821
vt 0.705689 0.018821
vt 0.130310 0.813412
vt 0.102390 0.813412
vt 0.130310 0.582585
vt 0.102390 0.582585
vt 0.104085 0.581656
vt 0.128220 0.581656
vt 0.104085 0.814961
vt 0.128220 0.814961
vt 0.102138 0.582585
vt 0.130058 0.582585
vt 0.102138 0.813412
vt 0.130058 0.813412
vt 0.128296 0.814961
vt 0.104161 0.814961
vt 0.128296 0.581656
vt 0.104161 0.581656
vt 0.130234 0.813412
vt 0.102314 0.813412
vt 0.130234 0.582585
vt 0.102314 0.582585
vt 0.128372 0.814961
vt 0.104237 0.814961
vt 0.128372 0.581656
vt 0.104237 0.581656
vt 0.102226 0.582585
vt 0.130146 0.582585
vt 0.102226 0.813412
vt 0.130146 0.813412
vt 0.104313 0.581656
vt 0.128448 0.581656
vt 0.104313 0.814961
vt 0.128448 0.814961
vt 0.707623 0.021199
vt 0.927659 0.023191
vt 0.707058 0.021194
vt 0.705451 0.338396
vt 0.926055 0.339747
vt 0.926642 0.018736
vt 0.927167 0.018739
vt 0.706718 0.017146
vt 0.925430 0.339996
vt 0.704984 0.337748
vt 0.706433 0.022257
vt 0.927870 0.022902
vt 0.706433 0.338728
vt 0.927870 0.338728
vt 0.927379 0.022257
vt 0.927379 0.338728
vt 0.705942 0.022902
vt 0.705942 0.338728
vt 0.278588 0.011098
vt 0.278588 0.512638
vt 0.008960 0.011098
vt 0.008960 0.512638
vt 0.685448 0.888227
vt 0.264413 0.888227
vt 0.685448 0.720168
vt 0.264413 0.720168
vt 0.685448 0.721717
vt 0.685448 0.889776
vt 0.264413 0.721717
vt 0.264413 0.889776
vt 0.006914 0.007905
vt 0.278879 0.007905
vt 0.006914 0.513071
vt 0.278879 0.513071
vt 0.214503 0.881010
vt 0.210485 0.867593
vt 0.214503 0.532170
vt 0.210485 0.545587
vt 0.179803 0.545587
vt 0.181693 0.532170
vt 0.179803 0.867593
vt 0.181693 0.881010
vt 0.026018 0.532170
vt 0.030036 0.545587
vt 0.026018 0.881010
vt 0.030036 0.867593
vt 0.060718 0.867593
vt 0.058829 0.881010
vt 0.060718 0.545587
vt 0.058829 0.532170
vt 0.120261 0.532170
vt 0.120261 0.545587
vt 0.120261 0.867593
vt 0.120261 0.881010
vt 0.216844 0.881010
vt 0.216844 0.532170
vt 0.698724 0.549492
vt 0.619619 0.633651
vt 0.704382 0.554811
vt 0.623734 0.639974
vt 0.698724 0.549392
vt 0.704382 0.554711
vt 0.619619 0.633552
vt 0.623734 0.639874
vt 0.023678 0.532170
vt 0.023678 0.881010
vt 0.243652 0.550000
vt 0.322981 0.633948
vt 0.238009 0.555334
vt 0.318884 0.640282
vt 0.243653 0.550100
vt 0.238009 0.555434
vt 0.322982 0.634048
vt 0.318884 0.640382
vt 0.471370 0.685677
vt 0.471380 0.693007
vt 0.471370 0.685577
vt 0.471379 0.692907
vt 0.306643 0.966246
vt 0.993819 0.966004
vt 0.303700 0.989048
vt 0.994548 0.987458
vt 0.311217 0.990540
vt 0.992069 0.988885
vt 0.314077 0.968062
vt 0.991362 0.967718
vt 0.984284 0.733031
vt 0.735570 0.733031
vt 0.984284 0.375222
vt 0.735570 0.375222
vt 0.550914 0.950173
vt 0.551015 0.909470
vt 0.969203 0.951207
vt 0.969303 0.910503
vt 0.973073 0.951206
vt 0.554785 0.950172
vt 0.973173 0.910503
vt 0.554885 0.909469
vt 0.973074 0.950833
vt 0.554786 0.949800
vt 0.973174 0.910130
vt 0.554886 0.909097
vt 0.984284 0.736137
vt 0.735570 0.736137
vt 0.984284 0.363074
vt 0.735570 0.363074
vt 0.973073 0.951206
vt 0.554785 0.950172
vt 0.973174 0.910503
vt 0.554885 0.909469
vt 0.969203 0.951207
vt 0.550914 0.950173
vt 0.969303 0.910503
vt 0.551015 0.909470
vt 0.973074 0.950833
vt 0.554786 0.949800
vt 0.973174 0.910130
vt 0.554886 0.909097
vt 0.971833 0.950981
vt 0.553545 0.949947
vt 0.971933 0.910278
vt 0.553645 0.909244
vt 0.264046 0.888461
vt 0.264046 0.721202
vt 0.686731 0.888461
vt 0.686731 0.721202
vt 0.264046 0.888339
vt 0.264046 0.721080
vt 0.686731 0.888339
vt 0.686731 0.721080
vt 0.328437 0.623423
vt 0.255971 0.552355
vt 0.609326 0.623048
vt 0.681602 0.551787
vt 0.583263 0.010827
vt 0.643781 0.010827
vt 0.583263 0.510539
vt 0.643781 0.510539
vt 0.609327 0.623861
vt 0.681604 0.552600
vt 0.328438 0.624236
vt 0.255972 0.553168
vt 0.354825 0.510539
vt 0.294307 0.510539
vt 0.354825 0.010827
vt 0.294307 0.010827
vt 0.468943 0.669450
vt 0.469044 0.010827
vt 0.469044 0.510539
vt 0.468944 0.670263
vt 0.706164 0.018316
vt 0.927479 0.018187
vt 0.706164 0.339947
vt 0.927479 0.339947
vt 0.927680 0.339947
vt 0.706364 0.339947
vt 0.927680 0.018316
vt 0.706364 0.018187
vt 0.706257 0.017671
vt 0.927572 0.017671
vt 0.706257 0.339302
vt 0.927572 0.339431
vt 0.927004 0.340452
vt 0.705689 0.340581
vt 0.927004 0.018821
vt 0.705689 0.018821
vt 0.130310 0.813412
vt 0.102390 0.813412
vt 0.130310 0.582585
vt 0.102390 0.582585
vt 0.104085 0.581656
vt 0.128220 0.581656
vt 0.104085 0.814961
vt 0.128220 0.814961
vt 0.102138 0.582585
vt 0.130058 0.582585
vt 0.102138 0.813412
vt 0.130058 0.813412
vt 0.128296 0.814961
vt 0.104161 0.814961
vt 0.128296 0.581656
vt 0.104161 0.581656
vt 0.130234 0.813412
vt 0.102314 0.813412
vt 0.130234 0.582585
vt 0.102314 0.582585
vt 0.128372 0.814961
vt 0.104237 0.814961
vt 0.128372 0.581656
vt 0.104237 0.581656
vt 0.102226 0.582585
vt 0.130146 0.582585
vt 0.102226 0.813412
vt 0.130146 0.813412
vt 0.104313 0.581656
vt 0.128448 0.581656
vt 0.104313 0.814961
vt 0.128448 0.814961
vt 0.707623 0.021199
vt 0.927659 0.023191
vt 0.707058 0.021194
vt 0.705451 0.338396
vt 0.926055 0.339747
vt 0.926642 0.018736
vt 0.927167 0.018739
vt 0.706718 0.017146
vt 0.925430 0.339996
vt 0.704984 0.337748
vt 0.706433 0.022257
vt 0.927870 0.022902
vt 0.706433 0.338728
vt 0.927870 0.338728
vt 0.927379 0.022257
vt 0.927379 0.338728
vt 0.705942 0.022902
vt 0.705942 0.338728
vt 0.278588 0.011098
vt 0.278588 0.512638
vt 0.008960 0.011098
vt 0.008960 0.512638
vt 0.685448 0.888227
vt 0.264413 0.888227
vt 0.685448 0.720168
vt 0.264413 0.720168
vt 0.685448 0.721717
vt 0.685448 0.889776
vt 0.264413 0.721717
vt 0.264413 0.889776
vt 0.006914 0.007905
vt 0.278879 0.007905
vt 0.006914 0.513071
vt 0.278879 0.513071
vt 0.214503 0.881010
vt 0.210485 0.867593
vt 0.214503 0.532170
vt 0.210485 0.545587
vt 0.179803 0.545587
vt 0.181693 0.532170
vt 0.179803 0.867593
vt 0.181693 0.881010
vt 0.026018 0.532170
vt 0.030036 0.545587
vt 0.026018 0.881010
vt 0.030036 0.867593
vt 0.060718 0.867593
vt 0.058829 0.881010
vt 0.060718 0.545587
vt 0.058829 0.532170
vt 0.120261 0.532170
vt 0.120261 0.545587
vt 0.120261 0.867593
vt 0.120261 0.881010
vt 0.216844 0.881010
vt 0.216844 0.532170
vt 0.698724 0.549492
vt 0.619619 0.633651
vt 0.704382 0.554811
vt 0.623734 0.639974
vt 0.698724 0.549392
vt 0.704382 0.554711
vt 0.619619 0.633552
vt 0.623734 0.639874
vt 0.023678 0.532170
vt 0.023678 0.881010
vt 0.243652 0.550000
vt 0.322981 0.633948
vt 0.238009 0.555334
vt 0.318884 0.640282
vt 0.243653 0.550100
vt 0.238009 0.555434
vt 0.322982 0.634048
vt 0.318884 0.640382
vt 0.471370 0.685677
vt 0.471380 0.693007
vt 0.471370 0.685577
vt 0.471379 0.692907
vt 0.306643 0.966246
vt 0.993819 0.966004
vt 0.303700 0.989048
vt 0.994548 0.987458
vt 0.311217 0.990540
vt 0.992069 0.988885
vt 0.314077 0.968062
vt 0.991362 0.967718
vt 0.984284 0.733031
vt 0.735570 0.733031
vt 0.984284 0.375222
vt 0.735570 0.375222
vt 0.550914 0.950173
vt 0.551015 0.909470
vt 0.969203 0.951207
vt 0.969303 0.910503
vt 0.973073 0.951206
vt 0.554785 0.950172
vt 0.973173 0.910503
vt 0.554885 0.909469
vt 0.973074 0.950833
vt 0.554786 0.949800
vt 0.973174 0.910130
vt 0.554886 0.909097
vt 0.984284 0.736137
vt 0.735570 0.736137
vt 0.984284 0.363074
vt 0.735570 0.363074
vt 0.973073 0.951206
vt 0.554785 0.950172
vt 0.973174 0.910503
vt 0.554885 0.909469
vt 0.969203 0.951207
vt 0.550914 0.950173
vt 0.969303 0.910503
vt 0.551015 0.909470
vt 0.973074 0.950833
vt 0.554786 0.949800
vt 0.973174 0.910130
vt 0.554886 0.909097
vt 0.971833 0.950981
vt 0.553545 0.949947
vt 0.971933 0.910278
vt 0.553645 0.909244
vn 0.959921 0.000000 -0.280271
vn 0.959921 0.000000 -0.280271
vn 0.959921 0.000000 -0.280271
vn 0.959921 0.000000 -0.280271
vn 0.959921 0.000000 -0.280271
vn 0.959921 0.000000 -0.280271
vn -0.959921 0.000000 0.280271
vn -0.959921 0.000000 0.280271
vn -0.959921 0.000000 0.280271
vn -0.959921 0.000000 0.280271
vn -0.959921 0.000000 0.280271
vn -0.959921 0.000000 0.280271
vn 0.280271 0.000000 0.959921
vn 0.280271 0.000000 0.959921
vn 0.280271 0.000000 0.959921
vn 0.280271 0.000000 0.959921
vn 0.280271 0.000000 0.959921
vn 0.280271 0.000000 0.959921
vn 0.488584 0.860776 -0.142654
vn 0.696112 0.688563 -0.203246
vn 0.488584 0.860776 -0.142654
vn 0.488584 0.860776 -0.142654
vn 0.696112 0.688563 -0.203246
vn 0.696112 0.688563 -0.203246
vn -0.280271 0.000000 -0.959921
vn -0.280271 0.000000 -0.959921
vn -0.280271 0.000000 -0.959921
vn -0.280271 0.000000 -0.959921
vn -0.280271 0.000000 -0.959921
vn -0.280271 0.000000 -0.959921
vn -0.488584 0.860776 0.142654
vn -0.696112 0.688563 0.203246
vn -0.488584 0.860776 0.142654
vn -0.488584 0.860776 0.142654
vn -0.696112 0.688563 0.203246
vn -0.696112 0.688563 0.203246
vn 0.280271 0.000000 0.959921
vn 0.280271 0.000000 0.959921
vn 0.280271 0.000000 0.959921
vn 0.000000 1.000000 0.000000
vn 0.488584 0.860776 -0.142654
vn 0.000000 1.000000 0.000000
vn 0.000000 1.000000 0.000000
vn 0.488584 0.860776 -0.142654
vn 0.488584 0.860776 -0.142654
vn -0.280271 0.000000 -0.959921
vn -0.280271 0.000000 -0.959921
vn -0.280271 0.000000 -0.959921
vn 0.000000 1.000000 0.000000
vn -0.488584 0.860776 0.142654
vn 0.000000 1.000000 0.000000
vn 0.000000 1.000000 0.000000
vn -0.488584 0.860776 0.142654
vn -0.488584 0.860776 0.142654
vn 0.280271 0.000000 0.959921
vn 0.280271 0.000000 0.959921
vn 0.280271 0.000000 0.959921
vn 0.280271 0.000000 0.959921
vn 0.280271 0.000000 0.959921
vn 0.280271 0.000000 0.959921
vn 0.280271 0.000000 0.959921
vn 0.280271 0.000000 0.959921
vn 0.280271 0.000000 0.959921
vn 0.280271 0.000000 0.959921
vn 0.280271 0.000000 0.959921
vn 0.280271 0.000000 0.959921
vn -0.280271 0.000000 -0.959921
vn -0.280271 0.000000 -0.959921
vn -0.280271 0.000000 -0.959921
vn -0.280271 0.000000 -0.959921
vn -0.280271 0.000000 -0.959921
vn -0.280271 0.000000 -0.959921
vn -0.280271 0.000000 -0.959921
vn -0.280271 0.000000 -0.959921
vn -0.280271 0.000000 -0.959921
vn -0.280271 0.000000 -0.959921
vn -0.280271 0.000000 -0.959921
vn -0.280271 0.000000 -0.959921
vn 0.000000 1.000000 0.000000
vn 0.000000 1.000000 0.000000
vn 0.000000 1.000000 0.000000
vn 0.000000 1.000000 0.000000
vn 0.000000 1.000000 0.000000
vn 0.000000 1.000000 0.000000
vn -0.959921 0.000000 0.280271
vn -0.959921 0.000000 0.280271
vn -0.959921 0.000000 0.280271
vn -0.959921 0.000000 0.280271
vn -0.959921 0.000000 0.280271
vn -0.959921 0.000000 0.280271
vn 0.000000 -1.000000 0.000000
vn 0.000000 -1.000000 0.000000
vn 0.000000 -1.000000 0.000000
vn 0.000000 -1.000000 0.000000
vn 0.000000 -1.000000 0.000000
vn 0.000000 -1.000000 0.000000
vn 0.959921 0.000000 -0.280271
vn 0.959921 0.000000 -0.280271
vn 0.959921 0.000000 -0.280271
vn 0.959921 0.000000 -0.280271
vn 0.959921 0.000000 -0.280271
vn 0.959921 0.000000 -0.280271
vn 0.000000 -1.000000 0.000000
vn 0.000000 -1.000000 0.000000
vn 0.000000 -1.000000 0.000000
vn 0.000000 -1.000000 0.000000
vn 0.000000 -1.000000 0.000000
vn 0.000000 -1.000000 0.000000
vn -0.959921 0.000000 0.280271
vn -0.959921 0.000000 0.280271
vn -0.959921 0.000000 0.280271
vn -0.959921 0.000000 0.280271
vn -0.959921 0.000000 0.280271
vn -0.959921 0.000000 0.280271
vn 0.000000 1.000000 0.000000
vn 0.000000 1.000000 0.000000
vn 0.000000 1.000000 0.000000
vn 0.000000 1.000000 0.000000
vn 0.000000 1.000000 0.000000
vn 0.000000 1.000000 0.000000
vn 0.959921 0.000000 -0.280271
vn 0.959921 0.000000 -0.280271
vn 0.959921 0.000000 -0.280271
vn 0.959921 0.000000 -0.280271
vn 0.959921 0.000000 -0.280271
vn 0.959921 0.000000 -0.280271
vn -0.280271 0.000000 -0.959921
vn -0.280271 0.000000 -0.959921
vn -0.280271 0.000000 -0.959921
vn -0.280271 0.000000 -0.959921
vn -0.280271 0.000000 -0.959921
vn -0.280271 0.000000 -0.959921
vn -0.280271 0.000000 -0.959921
vn -0.280271 0.000000 -0.959921
vn -0.280271 0.000000 -0.959921
vn -0.280271 0.000000 -0.959921
vn -0.280271 0.000000 -0.959921
vn -0.280271 0.000000 -0.959921
vn -0.280271 0.000000 -0.959921
vn -0.280271 0.000000 -0.959921
vn -0.280271 0.000000 -0.959921
vn -0.280271 0.000000 -0.959921
vn -0.280271 0.000000 -0.959921
vn -0.280271 0.000000 -0.959921
vn 0.280271 0.000000 0.959921
vn 0.280271 0.000000 0.959921
vn 0.280271 0.000000 0.959921
vn 0.280271 0.000000 0.959921
vn 0.280271 0.000000 0.959921
vn 0.280271 0.000000 0.959921
vn 0.280271 0.000000 0.959921
vn 0.280271 0.000000 0.959921
vn 0.280271 0.000000 0.959921
vn 0.280271 0.000000 0.959921
vn 0.280271 0.000000 0.959921
vn 0.280271 0.000000 0.959921
vn 0.000000 -1.000000 0.000000
vn 0.000000 -1.000000 0.000000
vn 0.000000 -1.000000 0.000000
vn 0.000000 -1.000000 0.000000
vn 0.000000 -1.000000 0.000000
vn 0.000000 -1.000000 0.000000
vn 0.959921 0.000000 -0.280271
vn 0.959921 0.000000 -0.280271
vn 0.959921 0.000000 -0.280271
vn 0.959921 0.000000 -0.280271
vn 0.959921 0.000000 -0.280271
vn 0.959921 0.000000 -0.280271
vn -0.959921 0.000000 0.280271
vn -0.959921 0.000000 0.280271
vn -0.959921 0.000000 0.280271
vn -0.959921 0.000000 0.280271
vn -0.959921 0.000000 0.280271
vn -0.959921 0.000000 0.280271
vn 0.000000 1.000000 0.000000
vn 0.000000 1.000000 0.000000
vn 0.000000 1.000000 0.000000
vn 0.000000 1.000000 0.000000
vn 0.000000 1.000000 0.000000
vn 0.000000 1.000000 0.000000
vn -0.683473 -0.699798 0.207720
vn -0.675442 -0.708720 0.203699
vn -0.688437 -0.699277 0.192523
vn -0.688437 -0.699277 0.192523
vn -0.675442 -0.708720 0.203699
vn -0.679322 -0.708433 0.191426
vn -0.488558 -0.872324 0.019016
vn -0.510857 -0.858696 0.040822
vn -0.679322 -0.708433 0.191426
vn -0.679322 -0.708433 0.191426
vn -0.510857 -0.858696 0.040822
vn -0.688437 -0.699277 0.192523
vn -0.422036 -0.872324 0.246853
vn -0.675442 -0.708720 0.203699
vn -0.452564 -0.858696 0.240472
vn -0.452564 -0.858696 0.240472
vn -0.675442 -0.708720 0.203699
vn -0.683473 -0.699798 0.207720
vn 0.683472 -0.699799 -0.207719
vn 0.675442 -0.708721 -0.203699
vn 0.688439 -0.699275 -0.192525
vn 0.688439 -0.699275 -0.192525
vn 0.675442 -0.708721 -0.203699
vn 0.679326 -0.708429 -0.191428
vn 0.488559 -0.872324 -0.019017
vn 0.510857 -0.858696 -0.040823
vn 0.679326 -0.708429 -0.191428
vn 0.679326 -0.708429 -0.191428
vn 0.510857 -0.858696 -0.040823
vn 0.688439 -0.699275 -0.192525
vn 0.422036 -0.872324 -0.246852
vn 0.675442 -0.708721 -0.203699
vn 0.452565 -0.858696 -0.240471
vn 0.452565 -0.858696 -0.240471
vn 0.675442 -0.708721 -0.203699
vn 0.683472 -0.699799 -0.207719
vn -0.510857 -0.858696 0.040822
vn -0.488558 -0.872324 0.019016
vn -0.344962 -0.935762 -0.073149
vn -0.344962 -0.935762 -0.073149
vn -0.488558 -0.872324 0.019016
vn -0.345303 -0.934602 -0.085355
vn -0.245127 -0.934602 0.257745
vn -0.422036 -0.872324 0.246853
vn -0.251408 -0.935762 0.247273
vn -0.251408 -0.935762 0.247273
vn -0.422036 -0.872324 0.246853
vn -0.452564 -0.858696 0.240472
vn 0.510857 -0.858696 -0.040823
vn 0.488559 -0.872324 -0.019017
vn 0.344962 -0.935762 0.073149
vn 0.344962 -0.935762 0.073149
vn 0.488559 -0.872324 -0.019017
vn 0.345303 -0.934602 0.085355
vn 0.245127 -0.934602 -0.257745
vn 0.422036 -0.872324 -0.246852
vn 0.251408 -0.935762 -0.247273
vn 0.251408 -0.935762 -0.247273
vn 0.422036 -0.872324 -0.246852
vn 0.452565 -0.858696 -0.240471
vn 0.658368 -0.727737 -0.192226
vn 0.658368 -0.727737 -0.192226
vn 0.658368 -0.727737 -0.192226
vn 0.658368 -0.727737 -0.192226
vn 0.658368 -0.727737 -0.192226
vn 0.658368 -0.727737 -0.192226
vn -0.280276 0.000000 -0.959919
vn -0.280271 0.000000 -0.959921
vn -0.280276 0.000000 -0.959919
vn -0.280276 0.000000 -0.959919
vn -0.280271 0.000000 -0.959921
vn -0.280271 0.000000 -0.959921
vn 0.280271 0.000000 0.959921
vn 0.280271 0.000000 0.959921
vn 0.280272 0.000000 0.959921
vn 0.280272 0.000000 0.959921
vn 0.280271 0.000000 0.959921
vn 0.280272 0.000000 0.959921
vn -0.658371 -0.727734 0.192227
vn -0.658371 -0.727734 0.192227
vn -0.658371 -0.727734 0.192227
vn -0.658371 -0.727734 0.192227
vn -0.658371 -0.727734 0.192227
vn -0.658371 -0.727734 0.192227
vn 0.280271 0.000000 0.959921
vn 0.280271 0.000000 0.959921
vn 0.280271 0.000000 0.959921
vn 0.280271 0.000000 0.959921
vn 0.280271 0.000000 0.959921
vn 0.280271 0.000000 0.959921
vn -0.280271 0.000000 -0.959921
vn -0.280271 0.000000 -0.959921
vn -0.280273 0.000000 -0.959920
vn -0.280273 0.000000 -0.959920
vn -0.280271 0.000000 -0.959921
vn -0.280274 0.000000 -0.959920
vn -0.280271 0.000000 -0.959921
vn -0.280271 0.000000 -0.959921
vn -0.280271 0.000000 -0.959921
vn -0.280271 0.000000 -0.959921
vn -0.280271 0.000000 -0.959921
vn -0.280271 0.000000 -0.959921
vn 0.280272 0.000000 0.959921
vn 0.280272 0.000000 0.959921
vn 0.280271 0.000000 0.959921
vn 0.280271 0.000000 0.959921
vn 0.280272 0.000000 0.959921
vn 0.280271 0.000000 0.959921
vn 0.280271 0.000000 0.959921
vn 0.280271 0.000000 0.959921
vn 0.280271 0.000000 0.959921
vn 0.280271 0.000000 0.959921
vn 0.280271 0.000000 0.959921
vn 0.280271 0.000000 0.959921
vn -0.280273 0.000000 -0.959920
vn -0.280274 0.000000 -0.959920
vn -0.280271 0.000000 -0.959921
vn -0.280271 0.000000 -0.959921
vn -0.280274 0.000000 -0.959920
vn -0.280271 0.000000 -0.959921
vn 0.280271 0.000000 0.959921
vn 0.280271 0.000000 0.959921
vn 0.280271 0.000000 0.959921
vn 0.280271 0.000000 0.959921
vn 0.280271 0.000000 0.959921
vn 0.280271 0.000000 0.959921
vn 0.000000 1.000000 0.000000
vn 0.000000 1.000000 0.000000
vn 0.000000 1.000000 0.000000
vn 0.000000 1.000000 0.000000
vn 0.000000 1.000000 0.000000
vn 0.000000 1.000000 0.000000
vn 0.000000 -1.000000 0.000000
vn 0.000000 -1.000000 0.000000
vn 0.000000 -1.000000 0.000000
vn 0.000000 -1.000000 0.000000
vn 0.000000 -1.000000 0.000000
vn 0.000000 -1.000000 0.000000
vn 0.959921 0.000000 -0.280271
vn 0.959921 0.000000 -0.280271
vn 0.959921 0.000000 -0.280271
vn 0.959921 0.000000 -0.280271
vn 0.959921 0.000000 -0.280271
vn 0.959921 0.000000 -0.280271
vn -0.959921 0.000000 0.280271
vn -0.959921 0.000000 0.280271
vn -0.959921 0.000000 0.280271
vn -0.959921 0.000000 0.280271
vn -0.959921 0.000000 0.280271
vn -0.959921 0.000000 0.280271
vn 0.280271 0.000000 0.959921
vn 0.280271 0.000000 0.959921
vn 0.280271 0.000000 0.959921
vn 0.280271 0.000000 0.959921
vn 0.280271 0.000000 0.959921
vn 0.280271 0.000000 0.959921
vn 0.000000 -1.000000 0.000000
vn 0.000000 -1.000000 0.000000
vn 0.000000 -1.000000 0.000000
vn 0.000000 -1.000000 0.000000
vn 0.000000 -1.000000 0.000000
vn 0.000000 -1.000000 0.000000
vn 0.959921 0.000000 -0.280271
vn 0.959921 0.000000 -0.280271
vn 0.959921 0.000000 -0.280271
vn 0.959921 0.000000 -0.280271
vn 0.959921 0.000000 -0.280271
vn 0.959921 0.000000 -0.280271
vn -0.959921 0.000000 0.280271
vn -0.959921 0.000000 0.280271
vn -0.959921 0.000000 0.280271
vn -0.959921 0.000000 0.280271
vn -0.959921 0.000000 0.280271
vn -0.959921 0.000000 0.280271
vn 0.280271 0.000000 0.959921
vn 0.280271 0.000000 0.959921
vn 0.280271 0.000000 0.959921
vn 0.280271 0.000000 0.959921
vn 0.280271 0.000000 0.959921
vn 0.280271 0.000000 0.959921
vn 0.000000 1.000000 0.000000
vn 0.000000 1.000000 0.000000
vn 0.000000 1.000000 0.000000
vn 0.000000 1.000000 0.000000
vn 0.000000 1.000000 0.000000
vn 0.000000 1.000000 0.000000
vn 0.000000 -1.000000 0.000000
vn 0.000000 -1.000000 0.000000
vn 0.000000 -1.000000 0.000000
vn 0.000000 -1.000000 0.000000
vn 0.000000 -1.000000 0.000000
vn 0.000000 -1.000000 0.000000
vn 0.959921 0.000000 -0.280271
vn 0.959921 0.000000 -0.280271
vn 0.959921 0.000000 -0.280271
vn 0.959921 0.000000 -0.280271
vn 0.959921 0.000000 -0.280271
vn 0.959921 0.000000 -0.280271
vn -0.959921 0.000000 0.280271
vn -0.959921 0.000000 0.280271
vn -0.959921 0.000000 0.280271
vn -0.959921 0.000000 0.280271
vn -0.959921 0.000000 0.280271
vn -0.959921 0.000000 0.280271
vn 0.959921 0.000000 -0.280271
vn 0.959921 0.000000 -0.280271
vn 0.959921 0.000000 -0.280271
vn 0.959921 0.000000 -0.280271
vn 0.959921 0.000000 -0.280271
vn 0.959921 0.000000 -0.280271
vn -0.959921 0.000000 0.280271
vn -0.959921 0.000000 0.280271
vn -0.959921 0.000000 0.280271
vn -0.959921 0.000000 0.280271
vn -0.959921 0.000000 0.280271
vn -0.959921 0.000000 0.280271
vn 0.280271 0.000000 0.959921
vn 0.280271 0.000000 0.959921
vn 0.280271 0.000000 0.959921
vn 0.280271 0.000000 0.959921
vn 0.280271 0.000000 0.959921
vn 0.280271 0.000000 0.959921
vn 0.488584 0.860776 -0.142654
vn 0.696112 0.688563 -0.203246
vn 0.488584 0.860776 -0.142654
vn 0.488584 0.860776 -0.142654
vn 0.696112 0.688563 -0.203246
vn 0.696112 0.688563 -0.203246
vn -0.280271 0.000000 -0.959921
vn -0.280271 0.000000 -0.959921
vn -0.280271 0.000000 -0.959921
vn -0.280271 0.000000 -0.959921
vn -0.280271 0.000000 -0.959921
vn -0.280271 0.000000 -0.959921
vn -0.488584 0.860776 0.142654
vn -0.696112 0.688563 0.203246
vn -0.488584 0.860776 0.142654
vn -0.488584 0.860776 0.142654
vn -0.696112 0.688563 0.203246
vn -0.696112 0.688563 0.203246
vn 0.280271 0.000000 0.959921
vn 0.280271 0.000000 0.959921
vn 0.280271 0.000000 0.959921
vn 0.000000 1.000000 0.000000
vn 0.488584 0.860776 -0.142654
vn 0.000000 1.000000 0.000000
vn 0.000000 1.000000 0.000000
vn 0.488584 0.860776 -0.142654
vn 0.488584 0.860776 -0.142654
vn -0.280271 0.000000 -0.959921
vn -0.280271 0.000000 -0.959921
vn -0.280271 0.000000 -0.959921
vn 0.000000 1.000000 0.000000
vn -0.488584 0.860776 0.142654
vn 0.000000 1.000000 0.000000
vn 0.000000 1.000000 0.000000
vn -0.488584 0.860776 0.142654
vn -0.488584 0.860776 0.142654
vn 0.280271 0.000000 0.959921
vn 0.280271 0.000000 0.959921
vn 0.280271 0.000000 0.959921
vn 0.280271 0.000000 0.959921
vn 0.280271 0.000000 0.959921
vn 0.280271 0.000000 0.959921
vn 0.280271 0.000000 0.959921
vn 0.280271 0.000000 0.959921
vn 0.280271 0.000000 0.959921
vn 0.280271 0.000000 0.959921
vn 0.280271 0.000000 0.959921
vn 0.280271 0.000000 0.959921
vn -0.280271 0.000000 -0.959921
vn -0.280271 0.000000 -0.959921
vn -0.280271 0.000000 -0.959921
vn -0.280271 0.000000 -0.959921
vn -0.280271 0.000000 -0.959921
vn -0.280271 0.000000 -0.959921
vn -0.280271 0.000000 -0.959921
vn -0.280271 0.000000 -0.959921
vn -0.280271 0.000000 -0.959921
vn -0.280271 0.000000 -0.959921
vn -0.280271 0.000000 -0.959921
vn -0.280271 0.000000 -0.959921
vn 0.000000 1.000000 0.000000
vn 0.000000 1.000000 0.000000
vn 0.000000 1.000000 0.000000
vn 0.000000 1.000000 0.000000
vn 0.000000 1.000000 0.000000
vn 0.000000 1.000000 0.000000
vn -0.959921 0.000000 0.280271
vn -0.959921 0.000000 0.280271
vn -0.959921 0.000000 0.280271
vn -0.959921 0.000000 0.280271
vn -0.959921 0.000000 0.280271
vn -0.959921 0.000000 0.280271
vn 0.000000 -1.000000 0.000000
vn 0.000000 -1.000000 0.000000
vn 0.000000 -1.000000 0.000000
vn 0.000000 -1.000000 0.000000
vn 0.000000 -1.000000 0.000000
vn 0.000000 -1.000000 0.000000
vn 0.959921 0.000000 -0.280271
vn 0.959921 0.000000 -0.280271
vn 0.959921 0.000000 -0.280271
vn 0.959921 0.000000 -0.280271
vn 0.959921 0.000000 -0.280271
vn 0.959921 0.000000 -0.280271
vn 0.000000 -1.000000 0.000000
vn 0.000000 -1.000000 0.000000
vn 0.000000 -1.000000 0.000000
vn 0.000000 -1.000000 0.000000
vn 0.000000 -1.000000 0.000000
vn 0.000000 -1.000000 0.000000
vn -0.959921 0.000000 0.280271
vn -0.959921 0.000000 0.280271
vn -0.959921 0.000000 0.280271
vn -0.959921 0.000000 0.280271
vn -0.959921 0.000000 0.280271
vn -0.959921 0.000000 0.280271
vn 0.000000 1.000000 0.000000
vn 0.000000 1.000000 0.000000
vn 0.000000 1.000000 0.000000
vn 0.000000 1.000000 0.000000
vn 0.000000 1.000000 0.000000
vn 0.000000 1.000000 0.000000
vn 0.959921 0.000000 -0.280271
vn 0.959921 0.000000 -0.280271
vn 0.959921 0.000000 -0.280271
vn 0.959921 0.000000 -0.280271
vn 0.959921 0.000000 -0.280271
vn 0.959921 0.000000 -0.280271
vn -0.280271 0.000000 -0.959921
vn -0.280271 0.000000 -0.959921
vn -0.280271 0.000000 -0.959921
vn -0.280271 0.000000 -0.959921
vn -0.280271 0.000000 -0.959921
vn -0.280271 0.000000 -0.959921
vn -0.280271 0.000000 -0.959921
vn -0.280271 0.000000 -0.959921
vn -0.280271 0.000000 -0.959921
vn -0.280271 0.000000 -0.959921
vn -0.280271 0.000000 -0.959921
vn -0.280271 0.000000 -0.959921
vn -0.280271 0.000000 -0.959921
vn -0.280271 0.000000 -0.959921
vn -0.280271 0.000000 -0.959921
vn -0.280271 0.000000 -0.959921
vn -0.280271 0.000000 -0.959921
vn -0.280271 0.000000 -0.959921
vn 0.280271 0.000000 0.959921
vn 0.280271 0.000000 0.959921
vn 0.280271 0.000000 0.959921
vn 0.280271 0.000000 0.959921
vn 0.280271 0.000000 0.959921
vn 0.280271 0.000000 0.959921
vn 0.280271 0.000000 0.959921
vn 0.280271 0.000000 0.959921
vn 0.280271 0.000000 0.959921
vn 0.280271 0.000000 0.959921
vn 0.280271 0.000000 0.959921
vn 0.280271 0.000000 0.959921
vn 0.000000 -1.000000 0.000000
vn 0.000000 -1.000000 0.000000
vn 0.000000 -1.000000 0.000000
vn 0.000000 -1.000000 0.000000
vn 0.000000 -1.000000 0.000000
vn 0.000000 -1.000000 0.000000
vn 0.959921 0.000000 -0.280271
vn 0.959921 0.000000 -0.280271
vn 0.959921 0.000000 -0.280271
vn 0.959921 0.000000 -0.280271
vn 0.959921 0.000000 -0.280271
vn 0.959921 0.000000 -0.280271
vn -0.959921 0.000000 0.280271
vn -0.959921 0.000000 0.280271
vn -0.959921 0.000000 0.280271
vn -0.959921 0.000000 0.280271
vn -0.959921 0.000000 0.280271
vn -0.959921 0.000000 0.280271
vn 0.000000 1.000000 0.000000
vn 0.000000 1.000000 0.000000
vn 0.000000 1.000000 0.000000
vn 0.000000 1.000000 0.000000
vn 0.000000 1.000000 0.000000
vn 0.000000 1.000000 0.000000
vn -0.683473 -0.699798 0.207720
vn -0.675442 -0.708720 0.203699
vn -0.688437 -0.699277 0.192523
vn -0.688437 -0.699277 0.192523
vn -0.675442 -0.708720 0.203699
vn -0.679322 -0.708433 0.191426
vn -0.488558 -0.872324 0.019016
vn -0.510857 -0.858696 0.040822
vn -0.679322 -0.708433 0.191426
vn -0.679322 -0.708433 0.191426
vn -0.510857 -0.858696 0.040822
vn -0.688437 -0.699277 0.192523
vn -0.422036 -0.872324 0.246853
vn -0.675442 -0.708720 0.203699
vn -0.452564 -0.858696 0.240472
vn -0.452564 -0.858696 0.240472
vn -0.675442 -0.708720 0.203699
vn -0.683473 -0.699798 0.207720
vn 0.683472 -0.699799 -0.207719
vn 0.675442 -0.708721 -0.203699
vn 0.688439 -0.699275 -0.192525
vn 0.688439 -0.699275 -0.192525
vn 0.675442 -0.708721 -0.203699
vn 0.679326 -0.708429 -0.191428
vn 0.488559 -0.872324 -0.019017
vn 0.510857 -0.858696 -0.040823
vn 0.679326 -0.708429 -0.191428
vn 0.679326 -0.708429 -0.191428
vn 0.510857 -0.858696 -0.040823
vn 0.688439 -0.699275 -0.192525
vn 0.422036 -0.872324 -0.246852
vn 0.675442 -0.708721 -0.203699
vn 0.452565 -0.858696 -0.240471
vn 0.452565 -0.858696 -0.240471
vn 0.675442 -0.708721 -0.203699
vn 0.683472 -0.699799 -0.207719
vn -0.510857 -0.858696 0.040822
vn -0.488558 -0.872324 0.019016
vn -0.344962 -0.935762 -0.073149
vn -0.344962 -0.935762 -0.073149
vn -0.488558 -0.872324 0.019016
vn -0.345303 -0.934602 -0.085355
vn -0.245127 -0.934602 0.257745
vn -0.422036 -0.872324 0.246853
vn -0.251408 -0.935762 0.247273
vn -0.251408 -0.935762 0.247273
vn -0.422036 -0.872324 0.246853
vn -0.452564 -0.858696 0.240472
vn 0.510857 -0.858696 -0.040823
vn 0.488559 -0.872324 -0.019017
vn 0.344962 -0.935762 0.073149
vn 0.344962 -0.935762 0.073149
vn 0.488559 -0.872324 -0.019017
vn 0.345303 -0.934602 0.085355
vn 0.245127 -0.934602 -0.257745
vn 0.422036 -0.872324 -0.246852
vn 0.251408 -0.935762 -0.247273
vn 0.251408 -0.935762 -0.247273
vn 0.422036 -0.872324 -0.246852
vn 0.452565 -0.858696 -0.240471
vn 0.658368 -0.727737 -0.192226
vn 0.658368 -0.727737 -0.192226
vn 0.658368 -0.727737 -0.192226
vn 0.658368 -0.727737 -0.192226
vn 0.658368 -0.727737 -0.192226
vn 0.658368 -0.727737 -0.192226
vn -0.280276 0.000000 -0.959919
vn -0.280271 0.000000 -0.959921
vn -0.280276 0.000000 -0.959919
vn -0.280276 0.000000 -0.959919
vn -0.280271 0.000000 -0.959921
vn -0.280271 0.000000 -0.959921
vn 0.280271 0.000000 0.959921
vn 0.280271 0.000000 0.959921
vn 0.280272 0.000000 0.959921
vn 0.280272 0.000000 0.959921
vn 0.280271 0.000000 0.959921
vn 0.280272 0.000000 0.959921
vn -0.658371 -0.727734 0.192227
vn -0.658371 -0.727734 0.192227
vn -0.658371 -0.727734 0.192227
vn -0.658371 -0.727734 0.192227
vn -0.658371 -0.727734 0.192227
vn -0.658371 -0.727734 0.192227
vn 0.280271 0.000000 0.959921
vn 0.280271 0.000000 0.959921
vn 0.280271 0.000000 0.959921
vn 0.280271 0.000000 0.959921
vn 0.280271 0.000000 0.959921
vn 0.280271 0.000000 0.959921
vn -0.280271 0.000000 -0.959921
vn -0.280271 0.000000 -0.959921
vn -0.280273 0.000000 -0.959920
vn -0.280273 0.000000 -0.959920
vn -0.280271 0.000000 -0.959921
vn -0.280274 0.000000 -0.959920
vn -0.280271 0.000000 -0.959921
vn -0.280271 0.000000 -0.959921
vn -0.280271 0.000000 -0.959921
vn -0.280271 0.000000 -0.959921
vn -0.280271 0.000000 -0.959921
vn -0.280271 0.000000 -0.959921
vn 0.280272 0.000000 0.959921
vn 0.280272 0.000000 0.959921
vn 0.280271 0.000000 0.959921
vn 0.280271 0.000000 0.959921
vn 0.280272 0.000000 0.959921
vn 0.280271 0.000000 0.959921
vn 0.280271 0.000000 0.959921
vn 0.280271 0.000000 0.959921
vn 0.280271 0.000000 0.959921
vn 0.280271 0.000000 0.959921
vn 0.280271 0.000000 0.959921
vn 0.280271 0.000000 0.959921
vn -0.280273 0.000000 -0.959920
vn -0.280274 0.000000 -0.959920
vn -0.280271 0.000000 -0.959921
vn -0.280271 0.000000 -0.959921
vn -0.280274 0.000000 -0.959920
vn -0.280271 0.000000 -0.959921
vn 0.280271 0.000000 0.959921
vn 0.280271 0.000000 0.959921
vn 0.280271 0.000000 0.959921
vn 0.280271 0.000000 0.959921
vn 0.280271 0.000000 0.959921
vn 0.280271 0.000000 0.959921
vn 0.000000 1.000000 0.000000
vn 0.000000 1.000000 0.000000
vn 0.000000 1.000000 0.000000
vn 0.000000 1.000000 0.000000
vn 0.000000 1.000000 0.000000
vn 0.000000 1.000000 0.000000
vn 0.000000 -1.000000 0.000000
vn 0.000000 -1.000000 0.000000
vn 0.000000 -1.000000 0.000000
vn 0.000000 -1.000000 0.000000
vn 0.000000 -1.000000 0.000000
vn 0.000000 -1.000000 0.000000
vn 0.959921 0.000000 -0.280271
vn 0.959921 0.000000 -0.280271
vn 0.959921 0.000000 -0.280271
vn 0.959921 0.000000 -0.280271
vn 0.959921 0.000000 -0.280271
vn 0.959921 0.000000 -0.280271
vn -0.959921 0.000000 0.280271
vn -0.959921 0.000000 0.280271
vn -0.959921 0.000000 0.280271
vn -0.959921 0.000000 0.280271
vn -0.959921 0.000000 0.280271
vn -0.959921 0.000000 0.280271
vn 0.280271 0.000000 0.959921
vn 0.280271 0.000000 0.959921
vn 0.280271 0.000000 0.959921
vn 0.280271 0.000000 0.959921
vn 0.280271 0.000000 0.959921
vn 0.280271 0.000000 0.959921
vn 0.000000 -1.000000 0.000000
vn 0.000000 -1.000000 0.000000
vn 0.000000 -1.000000 0.000000
vn 0.000000 -1.000000 0.000000
vn 0.000000 -1.000000 0.000000
vn 0.000000 -1.000000 0.000000
vn 0.959921 0.000000 -0.280271
vn 0.959921 0.000000 -0.280271
vn 0.959921 0.000000 -0.280271
vn 0.959921 0.000000 -0.280271
vn 0.959921 0.000000 -0.280271
vn 0.959921 0.000000 -0.280271
vn -0.959921 0.000000 0.280271
vn -0.959921 0.000000 0.280271
vn -0.959921 0.000000 0.280271
vn -0.959921 0.000000 0.280271
vn -0.959921 0.000000 0.280271
vn -0.959921 0.000000 0.280271
vn 0.280271 0.000000 0.959921
vn 0.280271 0.000000 0.959921
vn 0.280271 0.000000 0.959921
vn 0.280271 0.000000 0.959921
vn 0.280271 0.000000 0.959921
vn 0.280271 0.000000 0.959921
vn 0.000000 1.000000 0.000000
vn 0.000000 1.000000 0.000000
vn 0.000000 1.000000 0.000000
vn 0.000000 1.000000 0.000000
vn 0.000000 1.000000 0.000000
vn 0.000000 1.000000 0.000000
vn 0.000000 -1.000000 0.000000
vn 0.000000 -1.000000 0.000000
vn 0.000000 -1.000000 0.000000
vn 0.000000 -1.000000 0.000000
vn 0.000000 -1.000000 0.000000
vn 0.000000 -1.000000 0.000000
vn 0.959921 0.000000 -0.280271
vn 0.959921 0.000000 -0.280271
vn 0.959921 0.000000 -0.280271
vn 0.959921 0.000000 -0.280271
vn 0.959921 0.000000 -0.280271
vn 0.959921 0.000000 -0.280271
vn -0.959921 0.000000 0.280271
vn -0.959921 0.000000 0.280271
vn -0.959921 0.000000 0.280271
vn -0.959921 0.000000 0.280271
vn -0.959921 0.000000 0.280271
vn -0.959921 0.000000 0.280271
f 4/1/1 2/2/2 6/3/3
f 6/3/4 2/2/5 8/4/6
f 5/5/7 7/6/8 3/7/9
f 3/7/10 7/6/11 1/8/12
f 9/9/13 3/10/14 10/11/15
f 10/11/16 3/10/17 4/12/18
f 52/13/19 49/14/20 51/15/21
f 51/15/22 49/14/23 50/16/24
f 11/17/25 6/18/26 12/19/27
f 12/19/28 6/18/29 5/20/30
f 56/21/31 54/22/32 55/23/33
f 55/23/34 54/22/35 53/24/36
f 9/9/37 10/11/38 13/25/39
f 58/26/40 52/13/41 57/27/42
f 57/27/43 52/13/44 51/15/45
f 11/17/46 12/19/47 14/28/48
f 57/27/49 56/21/50 58/26/51
f 58/26/52 56/21/53 55/23/54
f 16/29/55 2/30/56 17/31/57
f 17/31/58 2/30/59 4/32/60
f 18/33/61 3/34/62 15/35/63
f 15/35/64 3/34/65 1/36/66
f 20/37/67 6/38/68 21/39/69
f 21/39/70 6/38/71 8/40/72
f 22/41/73 7/42/74 19/43/75
f 19/43/76 7/42/77 5/44/78
f 23/45/79 15/46/80 24/47/81
f 24/47/82 15/46/83 16/48/84
f 24/49/85 16/50/86 25/51/87
f 25/51/88 16/50/89 17/52/90
f 25/53/91 17/54/92 26/55/93
f 26/55/94 17/54/95 18/56/96
f 26/57/97 18/58/98 23/59/99
f 23/59/100 18/58/101 15/60/102
f 27/61/103 19/62/104 28/63/105
f 28/63/106 19/62/107 20/64/108
f 28/65/109 20/66/110 29/67/111
f 29/67/112 20/66/113 21/68/114
f 29/69/115 21/70/116 30/71/117
f 30/71/118 21/70/119 22/72/120
f 30/73/121 22/74/122 27/75/123
f 27/75/124 22/74/125 19/76/126
f 26/77/127 33/78/128 25/79/129
f 24/80/130 25/79/131 32/81/132
f 32/81/133 25/79/134 33/78/135
f 33/82/136 26/83/137 34/84/138
f 26/83/139 23/85/140 34/84/141
f 23/85/142 31/86/143 34/84/144
f 29/87/145 37/88/146 28/89/147
f 28/89/148 37/88/149 36/90/150
f 30/91/151 27/92/152 38/93/153
f 38/93/154 27/92/155 35/94/156
f 36/95/157 33/96/158 35/97/159
f 35/97/160 33/96/161 34/98/162
f 35/99/163 34/100/164 38/101/165
f 38/101/166 34/100/167 31/102/168
f 32/103/169 33/104/170 37/105/171
f 37/105/172 33/104/173 36/106/174
f 31/107/175 32/108/176 38/109/177
f 38/109/178 32/108/179 37/110/180
f 39/111/181 4/112/182 40/113/183
f 40/113/184 4/112/185 6/114/186
f 11/115/187 41/116/188 6/114/189
f 6/114/190 41/116/191 40/113/192
f 10/117/193 4/112/194 42/118/195
f 42/118/196 4/112/197 39/111/198
f 44/119/199 5/120/200 43/121/201
f 43/121/202 5/120/203 3/122/204
f 9/123/205 45/124/206 3/122/207
f 3/122/208 45/124/209 43/121/210
f 12/125/211 5/120/212 46/126/213
f 46/126/214 5/120/215 44/119/216
f 41/116/217 11/115/218 47/127/219
f 47/127/220 11/115/221 14/128/222
f 13/129/223 10/117/224 48/130/225
f 48/130/226 10/117/227 42/118/228
f 45/124/229 9/123/230 48/130/231
f 48/130/232 9/123/233 13/129/234
f 14/128/235 12/125/236 47/127/237
f 47/127/238 12/125/239 46/126/240
f 49/131/241 39/111/242 50/132/243
f 50/132/244 39/111/245 40/113/246
f 40/133/247 41/134/248 50/135/249
f 50/135/250 41/134/251 51/136/252
f 39/137/253 49/138/254 42/139/255
f 42/139/256 49/138/257 52/140/258
f 54/141/259 44/119/260 53/142/261
f 53/142/262 44/119/263 43/121/264
f 43/143/265 45/144/266 53/145/267
f 53/145/268 45/144/269 55/146/270
f 44/147/271 54/148/272 46/149/273
f 46/149/274 54/148/275 56/150/276
f 41/134/277 47/151/278 51/136/279
f 51/136/280 47/151/281 57/152/282
f 42/139/283 52/140/284 48/153/285
f 48/153/286 52/140/287 58/154/288
f 45/144/289 48/153/290 55/146/291
f 55/146/292 48/153/293 58/154/294
f 46/149/295 56/150/296 47/151/297
f 47/151/298 56/150/299 57/152/300
f 59/155/301 60/156/302 61/157/303
f 61/157/304 60/156/305 62/158/306
f 61/157/307 62/158/308 63/159/309
f 63/159/310 62/158/311 64/160/312
f 65/161/313 66/162/314 59/155/315
f 59/155/316 66/162/317 60/156/318
f 60/156/319 66/162/320 62/158/321
f 62/158/322 66/162/323 64/160/324
f 65/161/325 59/155/326 63/159/327
f 63/159/328 59/155/329 61/157/330
f 67/163/331 68/164/332 69/165/333
f 69/165/334 68/164/335 70/166/336
f 73/167/337 74/168/338 67/169/339
f 67/169/340 74/168/341 68/170/342
f 68/171/343 74/172/344 70/173/345
f 70/173/346 74/172/347 72/174/348
f 73/175/349 67/176/350 71/177/351
f 71/177/352 67/176/353 69/178/354
f 75/179/355 76/180/356 77/181/357
f 77/181/358 76/180/359 78/182/360
f 77/183/361 78/184/362 79/185/363
f 79/185/364 78/184/365 80/186/366
f 81/187/367 82/188/368 75/189/369
f 75/189/370 82/188/371 76/190/372
f 76/191/373 82/192/374 78/193/375
f 78/193/376 82/192/377 80/194/378
f 81/195/379 75/196/380 79/197/381
f 79/197/382 75/196/383 77/198/384
f 86/199/385 84/200/386 88/201/387
f 88/201/388 84/200/389 90/202/390
f 87/203/391 89/204/392 85/205/393
f 85/205/394 89/204/395 83/206/396
f 91/207/397 85/208/398 92/209/399
f 92/209/400 85/208/401 86/210/402
f 134/211/403 131/212/404 133/213/405
f 133/213/406 131/212/407 132/214/408
f 93/215/409 88/216/410 94/217/411
f 94/217/412 88/216/413 87/218/414
f 138/219/415 136/220/416 137/221/417
f 137/221/418 136/220/419 135/222/420
f 91/207/421 92/209/422 95/223/423
f 140/224/424 134/211/425 139/225/426
f 139/225/427 134/211/428 133/213/429
f 93/215/430 94/217/431 96/226/432
f 139/225/433 138/219/434 140/224/435
f 140/224/436 138/219/437 137/221/438
f 98/227/439 84/228/440 99/229/441
f 99/229/442 84/228/443 86/230/444
f 100/231/445 85/232/446 97/233/447
f 97/233/448 85/232/449 83/234/450
f 102/235/451 88/236/452 103/237/453
f 103/237/454 88/236/455 90/238/456
f 104/239/457 89/240/458 101/241/459
f 101/241/460 89/240/461 87/242/462
f 105/243/463 97/244/464 106/245/465
f 106/245/466 97/244/467 98/246/468
f 106/247/469 98/248/470 107/249/471
f 107/249/472 98/248/473 99/250/474
f 107/251/475 99/252/476 108/253/477
f 108/253/478 99/252/479 100/254/480
f 108/255/481 100/256/482 105/257/483
f 105/257/484 100/256/485 97/258/486
f 109/259/487 101/260/488 110/261/489
f 110/261/490 101/260/491 102/262/492
f 110/263/493 102/264/494 111/265/495
f 111/265/496 102/264/497 103/266/498
f 111/267/499 103/268/500 112/269/501
f 112/269/502 103/268/503 104/270/504
f 112/271/505 104/272/506 109/273/507
f 109/273/508 104/272/509 101/274/510
f 108/275/511 115/276/512 107/277/513
f 106/278/514 107/277/515 114/279/516
f 114/279/517 107/277/518 115/276/519
f 115/280/520 108/281/521 116/282/522
f 108/281/523 105/283/524 116/282/525
f 105/283/526 113/284/527 116/282/528
f 111/285/529 119/286/530 110/287/531
f 110/287/532 119/286/533 118/288/534
f 112/289/535 109/290/536 120/291/537
f 120/291/538 109/290/539 117/292/540
f 118/293/541 115/294/542 117/295/543
f 117/295/544 115/294/545 116/296/546
f 117/297/547 116/298/548 120/299/549
f 120/299/550 116/298/551 113/300/552
f 114/301/553 115/302/554 119/303/555
f 119/303/556 115/302/557 118/304/558
f 113/305/559 114/306/560 120/307/561
f 120/307/562 114/306/563 119/308/564
f 121/309/565 86/310/566 122/311/567
f 122/311/568 86/310/569 88/312/570
f 93/313/571 123/314/572 88/312/573
f 88/312/574 123/314/575 122/311/576
f 92/315/577 86/310/578 124/316/579
f 124/316/580 86/310/581 121/309/582
f 126/317/583 87/318/584 125/319/585
f 125/319/586 87/318/587 85/320/588
f 91/321/589 127/322/590 85/320/591
f 85/320/592 127/322/593 125/319/594
f 94/323/595 87/318/596 128/324/597
f 128/324/598 87/318/599 126/317/600
f 123/314/601 93/313/602 129/325/603
f 129/325/604 93/313/605 96/326/606
f 95/327/607 92/315/608 130/328/609
f 130/328/610 92/315/611 124/316/612
f 127/322/613 91/321/614 130/328/615
f 130/328/616 91/321/617 95/327/618
f 96/326/619 94/323/620 129/325/621
f 129/325/622 94/323/623 128/324/624
f 131/329/625 121/309/626 132/330/627
f 132/330/628 121/309/629 122/311/630
f 122/331/631 123/332/632 132/333/633
f 132/333/634 123/332/635 133/334/636
f 121/335/637 131/336/638 124/337/639
f 124/337/640 131/336/641 134/338/642
f 136/339/643 126/317/644 135/340/645
f 135/340/646 126/317/647 125/319/648
f 125/341/649 127/342/650 135/343/651
f 135/343/652 127/342/653 137/344/654
f 126/345/655 136/346/656 128/347/657
f 128/347/658 136/346/659 138/348/660
f 123/332/661 129/349/662 133/334/663
f 133/334/664 129/349/665 139/350/666
f 124/337/667 134/338/668 130/351/669
f 130/351/670 134/338/671 140/352/672
f 127/342/673 130/351/674 137/344/675
f 137/344/676 130/351/677 140/352/678
f 128/347/679 138/348/680 129/349/681
f 129/349/682 138/348/683 139/350/684
f 141/353/685 142/354/686 143/355/687
f 143/355/688 142/354/689 144/356/690
f 143/355/691 144/356/692 145/357/693
f 145/357/694 144/356/695 146/358/696
f 147/359/697 148/360/698 141/353/699
f 141/353/700 148/360/701 142/354/702
f 142/354/703 148/360/704 144/356/705
f 144/356/706 148/360/707 146/358/708
f 147/359/709 141/353/710 145/357/711
f 145/357/712 141/353/713 143/355/714
f 149/361/715 150/362/716 151/363/717
f 151/363/718 150/362/719 152/364/720
f 155/365/721 156/366/722 149/367/723
f 149/367/724 156/366/725 150/368/726
f 150/369/727 156/370/728 152/371/729
f 152/371/730 156/370/731 154/372/732
f 155/373/733 149/374/734 153/375/735
f 153/375/736 149/374/737 151/376/738
f 157/377/739 158/378/740 159/379/741
f 159/379/742 158/378/743 160/380/744
f 159/381/745 160/382/746 161/383/747
f 161/383/748 160/382/749 162/384/750
f 163/385/751 164/386/752 157/387/753
f 157/387/754 164/386/755 158/388/756
f 158/389/757 164/390/758 160/391/759
f 160/391/760 164/390/761 162/392/762
f 163/393/763 157/394/764 161/395/765
f 161/395/766 157/394/767 159/396/768
